{
  "id": "224573432732319746",
  "balance": 10.0,
  "succeededTrades": 0,
  "failedTrades": 0,
  "nbTrades": 0,
  "level": 1,
  "bestWin": 0.0,
  "worstLoss": 0.0,
  "rank": "DEFAULT",
  "activeTrades": [],
  "achievements": [],
  "langs": [],
  "mute": false
}